<?xml version="1.0" encoding="UTF-8"?>
<svg width="50px" height="50px" viewBox="0 0 50 50" version="1.1" xmlns="http://www.w3.org/2000/svg" xmlns:xlink="http://www.w3.org/1999/xlink">
    <!-- Generator: Sketch 48.2 (47327) - http://www.bohemiancoding.com/sketch -->
    <title>icon-notif</title>
    <desc>Created with Sketch.</desc>
    <defs></defs>
    <g id="Page-1" stroke="none" stroke-width="1" fill="none" fill-rule="evenodd">
        <g id="icon-notif" stroke-width="2">
            <g transform="translate(5.000000, 2.000000)">
                <path d="M10,11 L26,11 C27.105,11 28,10.105 28,9 L28,1.997 C28,0.894 27.106,0 26.002,0 L1.997,0 C0.894,0 0,0.894 0,1.997 L0,8.995 C0,10.102 0.898,11 2.005,11 L3,11 L3,16 C3,16.923 4.144,17.353 4.753,16.659 L10,11 Z" id="Stroke-1" stroke="#9AF6D1"></path>
                <path d="M31,26 L15,26 C13.895,26 13,25.105 13,24 L13,16.997 C13,15.894 13.894,15 14.997,15 L39.002,15 C40.106,15 41,15.894 41,16.997 L41,23.995 C41,25.102 40.102,26 38.995,26 L38,26 L38,31 C38,31.923 36.855,32.353 36.247,31.659 L31,26 Z" id="Stroke-3" stroke="#5D58F7"></path>
                <path d="M10,41 L26,41 C27.105,41 28,40.105 28,39 L28,31.997 C28,30.894 27.106,30 26.002,30 L1.997,30 C0.894,30 0,30.894 0,31.997 L0,38.995 C0,40.102 0.898,41 2.005,41 L3,41 L3,45 C3,45.923 4.144,46.353 4.753,45.659 L10,41 Z" id="Stroke-5" stroke="#9AF6D1"></path>
            </g>
        </g>
    </g>
</svg>